{
  "replace": false,
  "values": [
    "#good_nights_sleep:ores/candy",
    "#good_nights_sleep:ores/rainbow",
    "#good_nights_sleep:ores/positite",
    "#good_nights_sleep:ores/necrum",
    "#good_nights_sleep:ores/zitrite",
    "#good_nights_sleep:ores/negatite"
  ]
}