{
	"parent": "block/block",
	"texture_size": [64, 64],
	"textures": {
		"bed_texture": "good_nights_sleep:entity/strange_bed",
		"particle": "good_nights_sleep:entity/strange_bed"
	},
	"elements": [
		{
			"name": "bed_foot",
			"from": [0, 3, -16],
			"to": [16, 9, 0],
			"faces": {
				"north": {"uv": [5.5, 5.5, 9.5, 7], "rotation": 180, "texture": "#bed_texture"},
				"east": {"uv": [0, 7, 1.5, 11], "rotation": 270, "texture": "#bed_texture"},
				"south": {"uv": [1.5, 5.5, 5.5, 7], "texture": "#bed_texture"},
				"west": {"uv": [5.5, 7, 7, 11], "rotation": 90, "texture": "#bed_texture"},
				"up": {"uv": [1.5, 7.5, 5.5, 11], "rotation": 180, "texture": "#bed_texture"},
				"down": {"uv": [7, 7.5, 11, 11], "rotation": 180, "texture": "#bed_texture"}
			}
		},
		{
			"name": "bed_head",
			"from": [0, 3, 0],
			"to": [16, 9, 16],
			"faces": {
				"north": {"uv": [0, 0, 4, 1.5], "texture": "#bed_texture"},
				"east": {"uv": [0, 1.5, 1.5, 5.5], "rotation": 270, "texture": "#bed_texture"},
				"south": {"uv": [1.5, 0, 5.5, 1.5], "rotation": 180, "texture": "#bed_texture"},
				"west": {"uv": [5.5, 1.5, 7, 5.5], "rotation": 90, "texture": "#bed_texture"},
				"up": {"uv": [1.5, 1.5, 5.5, 5.5], "rotation": 180, "texture": "#bed_texture"},
				"down": {"uv": [7, 1.5, 11, 5.5], "rotation": 180, "texture": "#bed_texture"}
			}
		},
		{
			"name": "foot_front_left",
			"from": [13, 0, 13],
			"to": [16, 3, 16],
			"faces": {
				"north": {"uv": [14.75, 0.75, 15.5, 1.5], "texture": "#bed_texture"},
				"east": {"uv": [13.25, 0.75, 14, 1.5], "texture": "#bed_texture"},
				"south": {"uv": [13.25, 0.75, 14, 1.5], "rotation": 180, "texture": "#bed_texture"},
				"west": {"uv": [13.25, 0.75, 14, 1.5], "texture": "#bed_texture"},
				"up": {"uv": [0, 0, 0.25, 0.75], "rotation": 180, "texture": "#bed_texture"},
				"down": {"uv": [14, 0, 14.75, 0.75], "rotation": 180, "texture": "#bed_texture"}
			}
		},
		{
			"name": "foot_front_right",
			"from": [0, 0, 13],
			"to": [3, 3, 16],
			"faces": {
				"north": {"uv": [14, 0.75, 14.75, 1.5], "texture": "#bed_texture"},
				"east": {"uv": [13.25, 0.75, 14, 1.5], "rotation": 180, "texture": "#bed_texture"},
				"south": {"uv": [13.25, 0.75, 14, 1.5], "texture": "#bed_texture"},
				"west": {"uv": [13.25, 0.75, 14, 1.5], "rotation": 180, "texture": "#bed_texture"},
				"up": {"uv": [0, 0, 0.25, 0.75], "rotation": 180, "texture": "#bed_texture"},
				"down": {"uv": [14, 0, 14.75, 0.75], "rotation": 180, "texture": "#bed_texture"}
			}
		},
		{
			"name": "foot_back_left",
			"from": [13, 0, -16],
			"to": [16, 3, -13],
			"faces": {
				"north": {"uv": [13.25, 0.75, 14, 1.5], "texture": "#bed_texture"},
				"east": {"uv": [12.5, 0.75, 13.25, 1.5], "texture": "#bed_texture"},
				"south": {"uv": [14.75, 0.75, 15.5, 1.5], "texture": "#bed_texture"},
				"west": {"uv": [14, 0.75, 14.75, 1.5], "texture": "#bed_texture"},
				"up": {"uv": [0, 0, 0.25, 0.75], "rotation": 180, "texture": "#bed_texture"},
				"down": {"uv": [14, 0, 14.75, 0.75], "rotation": 180, "texture": "#bed_texture"}
			}
		},
		{
			"name": "foot_back_right",
			"from": [0, 0, -16],
			"to": [3, 3, -13],
			"faces": {
				"north": {"uv": [13.25, 0.75, 14, 1.5], "rotation": 180, "texture": "#bed_texture"},
				"east": {"uv": [13.75, 0.75, 14.5, 1.5], "rotation": 270, "texture": "#bed_texture"},
				"south": {"uv": [14, 0.75, 14.75, 1.5], "texture": "#bed_texture"},
				"west": {"uv": [13.25, 0.75, 14, 1.5], "texture": "#bed_texture"},
				"up": {"uv": [0, 0, 0.25, 0.75], "rotation": 180, "texture": "#bed_texture"},
				"down": {"uv": [14, 0, 14.75, 0.75], "rotation": 180, "texture": "#bed_texture"}
			}
		}
	],
	"display": {
        "thirdperson_righthand": {
            "rotation": [ 30, 160, 0 ],
            "translation": [ 0, 3, -2],
            "scale":[ 0.23, 0.23, 0.23]
        },
        "firstperson_righthand": {
            "rotation": [ 30, 160, 0 ],
            "translation": [ 0, 3, 0],
            "scale":[ 0.375, 0.375, 0.375]
        },
        "gui": {
            "rotation": [ 30, 160, 0 ],
            "translation": [ 2, 3, 0],
            "scale":[ 0.5325, 0.5325, 0.5325]
        },
        "ground": {
            "rotation": [ 0, 0, 0 ],
            "translation": [ 0, 1, 2],
            "scale":[ 0.25, 0.25, 0.25]
        },
        "head": {
            "rotation": [ 0, 180, 0 ],
            "translation": [ 0, 10, -8],
            "scale":[ 1,1,1 ]
        },
        "fixed": {
            "rotation": [ 270, 0, 0 ],
            "translation": [ 0, 4, -2],
            "scale":[ 0.5, 0.5, 0.5]
        }
    }
}