{
    "parent": "block/inner_stairs",
    "textures": {
        "bottom": "good_nights_sleep:block/dead_planks",
        "top": "good_nights_sleep:block/dead_planks",
        "side": "good_nights_sleep:block/dead_planks"
    }
}
