{
    "parent": "block/inner_stairs",
    "textures": {
        "bottom": "good_nights_sleep:block/delusion_stone",
        "top": "good_nights_sleep:block/delusion_stone",
        "side": "good_nights_sleep:block/delusion_stone"
    }
}
