{
    "parent": "block/slab_top",
    "textures": {
        "bottom": "good_nights_sleep:block/white_planks",
        "top": "good_nights_sleep:block/white_planks",
        "side": "good_nights_sleep:block/white_planks"
    }
}
