{
    "variants": {
        "type=bottom": { "model": "good_nights_sleep:block/dead_slab" },
        "type=top": { "model": "good_nights_sleep:block/dead_slab_top" },
        "type=double": { "model": "good_nights_sleep:block/dead_planks" }
    }
}
