{
	"variants": {
		"axis=y":  { "model": "good_nights_sleep:block/stripped_dead_wood" },
		"axis=z":   { "model": "good_nights_sleep:block/stripped_dead_wood", "x": 90 },
		"axis=x":   { "model": "good_nights_sleep:block/stripped_dead_wood", "x": 90, "y": 90 }
	}
}
