{
  "type": "minecraft:crafting_shaped",
  "pattern": [
    "##"
  ],
  "key": {
    "#": {
      "item": "good_nights_sleep:delusion_stone"
    }
  },
  "result": {
    "item": "good_nights_sleep:delusion_pressure_plate"
  }
}