{
  "type": "minecraft:crafting_shapeless",
  "ingredients": [
    {
      "tag": "good_nights_sleep:storage_blocks/positite"
    }
  ],
  "result": {
    "item": "good_nights_sleep:positite_gem",
    "count": 9
  }
}