{
  "type": "minecraft:crafting_shaped",
  "pattern": [
    "X",
    "#",
    "#"
  ],
  "key": {
    "#": {
      "item": "minecraft:stick"
    },
    "X": {
      "tag": "good_nights_sleep:ingots/rainbow"
    }
  },
  "result": {
    "item": "good_nights_sleep:rainbow_shovel"
  }
}