{
  "type": "minecraft:crafting_shaped",
  "pattern": [
    "# #",
    "# #"
  ],
  "key": {
    "#": {
      "tag": "good_nights_sleep:ingots/rainbow"
    }
  },
  "result": {
    "item": "good_nights_sleep:rainbow_boots"
  }
}